{
  "kind": "collectionType",
  "collectionName": "books",
  "info": {
    "name": "book",
    "description": ""
  },
  "options": {
    "increments": true,
    "timestamps": true,
    "draftAndPublish": true
  },
  "attributes": {
    "name": {
      "type": "string"
    },
    "author": {
      "via": "books",
      "model": "author"
    }
  }
}
